<?xml version="1.0" encoding="UTF-8"?>
<svg width="18px" height="18px" viewBox="0 0 18 18" version="1.1" xmlns="http://www.w3.org/2000/svg" xmlns:xlink="http://www.w3.org/1999/xlink">
    <!-- Generator: Sketch 47.1 (45422) - http://www.bohemiancoding.com/sketch -->
    <title>apartment</title>
    <desc>Created with Sketch.</desc>
    <defs></defs>
    <g id="Mockups" stroke="none" stroke-width="1" fill="none" fill-rule="evenodd">
        <g id="listing-page---default" transform="translate(-47.000000, -419.000000)" stroke="#333231" stroke-width="0.2" fill="#333231" fill-rule="nonzero">
            <g id="apartment" transform="translate(48.000000, 420.000000)">
                <path d="M15.7333438,15.4666552 L14.6501875,15.4666552 C14.6615625,15.37903 14.6666875,15.2895611 14.6666875,15.1999984 C14.6666875,14.4473095 14.2335313,13.8066207 13.6000313,13.5099326 L13.6000313,4.53332136 C13.6000313,4.37332105 13.493375,4.26666459 13.333375,4.26666459 L9.333375,4.26666459 L9.333375,0.266656778 C9.333375,0.106656465 9.22671875,6.86529522e-09 9.06671875,6.86529522e-09 L1.86671875,6.86529522e-09 C1.70665625,-3.12431957e-05 1.6,0.106625215 1.6,0.266625528 L1.6,15.4666552 L0.26665625,15.4666552 C0.10665625,15.4666552 0,15.5733117 0,15.733312 C0,15.8933123 0.10665625,16 0.26665625,16 L1.86665625,16 L2.66665625,16 L9.06665625,16 L14.32,16 L15.7333438,16 C15.8933438,16 16,15.8933435 16,15.7333432 C16,15.5733429 15.8933438,15.4666552 15.7333438,15.4666552 Z M12.8,13.3333073 C12.5986875,13.3333073 12.4012188,13.3675886 12.2146563,13.4316825 C12.1681875,13.3697449 12.0932813,13.3333073 12,13.3333073 C11.84,13.3333073 11.7333438,13.4399638 11.7333438,13.5999641 L11.7333438,13.681683 C11.6322813,13.7544956 11.5383125,13.8375583 11.4530313,13.9299022 C11.4395625,13.9441522 11.4263125,13.9585898 11.4133438,13.9732773 C11.192375,13.697058 10.90775,13.4972451 10.5859375,13.3999637 C10.5397188,13.3575573 10.476,13.333276 10.4,13.333276 C10.3702813,13.333276 10.3424063,13.3369948 10.3166875,13.3440261 C10.2564688,13.3369948 10.1953125,13.333276 10.1333438,13.333276 C9.96621875,13.333276 9.77803125,13.3549636 9.6255625,13.41687 C9.6066875,13.423245 9.5879375,13.4298075 9.569375,13.4368387 C9.38509375,13.287026 9.1695625,13.179182 8.9424375,13.1198381 C8.915375,13.1129631 8.8955,13.1081194 8.87553125,13.1037756 C8.85934375,13.1002131 8.84296875,13.0971193 8.826625,13.0940568 C8.81953125,13.0927443 8.8124375,13.0913381 8.8053125,13.0901193 C8.78815625,13.0871506 8.7709375,13.0845256 8.75359375,13.0821193 C8.74584375,13.0810256 8.73809375,13.0800568 8.7303125,13.079088 C8.71440625,13.0771193 8.6984375,13.0752755 8.682375,13.0738068 C8.67065625,13.072713 8.65890625,13.0719005 8.64715625,13.0710568 C8.63459375,13.0701818 8.6220625,13.0691505 8.60940625,13.0685568 C8.5840625,13.067338 8.55871875,13.066588 8.53334375,13.066588 C8.51371875,13.066588 8.49425,13.0669943 8.474875,13.067713 C8.4621875,13.0681505 8.44953125,13.0689318 8.436875,13.0696505 C8.1786875,13.0866506 7.94,13.1552132 7.7333125,13.2766509 L7.7333125,4.79997813 L9.06665625,4.79997813 L13.0666563,4.79997813 L13.0666563,13.3521511 C12.979625,13.3399948 12.8906875,13.3333073 12.8,13.3333073 Z M8.8,0.533313548 L8.8,4.26666459 L7.46665625,4.26666459 C7.30665625,4.26666459 7.2,4.37332105 7.2,4.53332136 L7.2,12.8266813 C7.06371875,12.6903998 6.906625,12.5751183 6.73559375,12.4848994 C6.7205,12.4768369 6.70525,12.4690244 6.6899375,12.4613993 C6.4815625,12.3601179 6.27446875,12.2995553 6.0580625,12.276899 C6.02378125,12.273524 5.99853125,12.2715552 5.97315625,12.2700865 C5.9664375,12.2696802 5.95971875,12.269274 5.95296875,12.2689302 C5.9243125,12.2675865 5.8955625,12.2666802 5.86665625,12.2666802 C5.46978125,12.2666802 5.10209375,12.3972117 4.8,12.6165871 L4.8,12.5333682 C4.8,12.3733679 4.69334375,12.2667115 4.53334375,12.2667115 C4.37334375,12.2667115 4.2666875,12.3733679 4.2666875,12.5333682 L4.2666875,13.066713 C4.2666875,13.1067131 4.27334375,13.1433694 4.28584375,13.1758695 C4.15490625,13.3916512 4.0646875,13.6349016 4.0266875,13.8934021 C3.7196875,13.928496 3.43896875,14.0389649 3.20003125,14.2041215 L3.20003125,14.1334026 C3.20003125,13.9734023 3.093375,13.8667458 2.933375,13.8667458 C2.773375,13.8667458 2.66671875,13.9734023 2.66671875,14.1334026 L2.66671875,14.6667474 C2.66671875,14.6978725 2.670875,14.7269038 2.6785625,14.7535913 C2.54634375,14.9674355 2.456375,15.2094047 2.4193125,15.4667177 L2.13340625,15.4667177 L2.13340625,0.533313548 L8.8,0.533313548 Z M4.1453125,14.4055281 C4.1753125,14.4032469 4.189375,14.4021844 4.2035625,14.4015281 C4.22446875,14.4005906 4.2455,14.3999656 4.2666875,14.3999656 C4.4266875,14.3999656 4.53334375,14.2933092 4.53334375,14.1333089 C4.53334375,13.3866511 5.12,12.7999625 5.8666875,12.7999625 C6.53334375,12.7999625 7.09334375,13.2799634 7.17334375,13.946621 C7.191375,14.0187461 7.2341875,14.0781837 7.29275,14.1176838 C7.2964375,14.1202776 7.30021875,14.1227151 7.3040625,14.1251213 C7.3081875,14.1276526 7.31228125,14.1302151 7.3165625,14.1325276 C7.32640625,14.1379651 7.33665625,14.1429339 7.34734375,14.1472151 C7.36075,14.1525901 7.3735,14.1566839 7.38665625,14.1599652 C7.40259375,14.1652777 7.420625,14.1673089 7.4396875,14.1667152 C7.52734375,14.1679964 7.608875,14.1200588 7.65334375,14.0534024 C7.65338542,14.0533608 7.66229167,14.0444545 7.6800625,14.0266836 C7.89340625,13.7600269 8.18671875,13.6000266 8.53340625,13.6000266 C8.71346875,13.6000266 8.8934375,13.6504642 9.05496875,13.7447768 C8.736875,14.0438712 8.5565,14.4337782 8.53553125,14.8509665 C8.534125,14.8782478 8.53340625,14.9057479 8.53340625,14.9333729 C8.53340625,15.1188108 8.56425,15.2965299 8.62528125,15.4667177 L2.96,15.4667177 C3.0848125,14.8925603 3.560125,14.4586845 4.1453125,14.4055281 Z M9.09334375,14.9066541 C9.09334375,14.6117785 9.20959375,14.3461218 9.40940625,14.1519339 C9.44759375,14.1165276 9.4883125,14.08384 9.5313125,14.0542462 C9.57296875,14.0545587 9.614875,14.0458712 9.65334375,14.0266524 C10.24,13.7066518 10.9333437,13.9999961 11.1466875,14.5866535 C11.1733437,14.6666536 11.2533437,14.7466538 11.3866875,14.7466538 C11.412,14.7466538 11.44,14.7385913 11.468125,14.7242788 C11.5350312,14.71331 11.5879375,14.6641849 11.6266875,14.5866535 C11.7300312,14.3670593 11.8900312,14.1917465 12.0847812,14.06884 C12.1268125,14.0571212 12.1629062,14.0363712 12.191625,14.0082149 C12.3747812,13.9161522 12.5824062,13.8666521 12.8000312,13.8666521 C13.5466875,13.8666521 14.133375,14.4533095 14.133375,15.1999984 C14.133375,15.2799986 14.133375,15.3866551 14.1067187,15.4666552 L9.2548125,15.4666552 C9.1529375,15.2943424 9.09334375,15.0906232 9.09334375,14.9066541 Z" id="Shape"></path>
                <path d="M8.8358209,6.92537313 C8.69253172,6.92537313 8.59701493,7.02088713 8.59701493,7.16417211 L8.59701493,7.64179804 C8.59701493,7.78508302 8.69253172,7.88059701 8.8358209,7.88059701 C8.97911007,7.88059701 9.07462687,7.78508302 9.07462687,7.64179804 L9.07462687,7.16417211 C9.07462687,7.02088713 8.97911007,6.92537313 8.8358209,6.92537313 Z" id="Shape"></path>
                <path d="M8.8358209,11.7014925 C8.69253172,11.7014925 8.59701493,11.7970065 8.59701493,11.9402915 L8.59701493,12.4179174 C8.59701493,12.5612024 8.69253172,12.6567164 8.8358209,12.6567164 C8.97911007,12.6567164 9.07462687,12.5612024 9.07462687,12.4179174 L9.07462687,11.9402915 C9.07462687,11.7970065 8.97911007,11.7014925 8.8358209,11.7014925 Z" id="Shape"></path>
                <path d="M8.8358209,8.59701493 C8.69253172,8.59701493 8.59701493,8.69252892 8.59701493,8.8358139 L8.59701493,9.31343983 C8.59701493,9.45672481 8.69253172,9.55223881 8.8358209,9.55223881 C8.97911007,9.55223881 9.07462687,9.45672481 9.07462687,9.31343983 L9.07462687,8.8358139 C9.07462687,8.69252892 8.97911007,8.59701493 8.8358209,8.59701493 Z" id="Shape"></path>
                <path d="M8.8358209,10.0298507 C8.69253172,10.0298507 8.59701493,10.1253647 8.59701493,10.2686497 L8.59701493,10.7462757 C8.59701493,10.8895606 8.69253172,10.9850746 8.8358209,10.9850746 C8.97911007,10.9850746 9.07462687,10.8895606 9.07462687,10.7462757 L9.07462687,10.2686497 C9.07462687,10.1253647 8.97911007,10.0298507 8.8358209,10.0298507 Z" id="Shape"></path>
                <path d="M8.8358209,5.25373134 C8.69253172,5.25373134 8.59701493,5.34924534 8.59701493,5.49253032 L8.59701493,5.97015625 C8.59701493,6.11344123 8.69253172,6.20895522 8.8358209,6.20895522 C8.97911007,6.20895522 9.07462687,6.11344123 9.07462687,5.97015625 L9.07462687,5.49253032 C9.07462687,5.34924534 8.97911007,5.25373134 8.8358209,5.25373134 Z" id="Shape"></path>
                <path d="M10.2686567,7.88059701 C10.4119459,7.88059701 10.5074627,7.78508302 10.5074627,7.64179804 L10.5074627,7.16417211 C10.5074627,7.02088713 10.4119459,6.92537313 10.2686567,6.92537313 C10.1253675,6.92537313 10.0298507,7.02088713 10.0298507,7.16417211 L10.0298507,7.64179804 C10.0298507,7.78508302 10.1253675,7.88059701 10.2686567,7.88059701 Z" id="Shape"></path>
                <path d="M10.2686567,6.20895522 C10.4119459,6.20895522 10.5074627,6.11344123 10.5074627,5.97015625 L10.5074627,5.49253032 C10.5074627,5.34924534 10.4119459,5.25373134 10.2686567,5.25373134 C10.1253675,5.25373134 10.0298507,5.34924534 10.0298507,5.49253032 L10.0298507,5.97015625 C10.0298507,6.11344123 10.1253675,6.20895522 10.2686567,6.20895522 Z" id="Shape"></path>
                <path d="M10.2686567,9.55223881 C10.4119459,9.55223881 10.5074627,9.45672481 10.5074627,9.31343983 L10.5074627,8.8358139 C10.5074627,8.69252892 10.4119459,8.59701493 10.2686567,8.59701493 C10.1253675,8.59701493 10.0298507,8.69252892 10.0298507,8.8358139 L10.0298507,9.31343983 C10.0298507,9.45672481 10.1253675,9.55223881 10.2686567,9.55223881 Z" id="Shape"></path>
                <path d="M10.2686567,10.9850746 C10.4119459,10.9850746 10.5074627,10.8895606 10.5074627,10.7462757 L10.5074627,10.2686497 C10.5074627,10.1253647 10.4119459,10.0298507 10.2686567,10.0298507 C10.1253675,10.0298507 10.0298507,10.1253647 10.0298507,10.2686497 L10.0298507,10.7462757 C10.0298507,10.8895606 10.1253675,10.9850746 10.2686567,10.9850746 Z" id="Shape"></path>
                <path d="M10.2686567,12.6567164 C10.4119459,12.6567164 10.5074627,12.5612024 10.5074627,12.4179174 L10.5074627,11.9402915 C10.5074627,11.7970065 10.4119459,11.7014925 10.2686567,11.7014925 C10.1253675,11.7014925 10.0298507,11.7970065 10.0298507,11.9402915 L10.0298507,12.4179174 C10.0298507,12.5612024 10.1253675,12.6567164 10.2686567,12.6567164 Z" id="Shape"></path>
                <path d="M11.9402985,9.55223881 C12.0835877,9.55223881 12.1791045,9.45672481 12.1791045,9.31343983 L12.1791045,8.8358139 C12.1791045,8.69252892 12.0835877,8.59701493 11.9402985,8.59701493 C11.7970093,8.59701493 11.7014925,8.69252892 11.7014925,8.8358139 L11.7014925,9.31343983 C11.7014925,9.45672481 11.7970093,9.55223881 11.9402985,9.55223881 Z" id="Shape"></path>
                <path d="M11.9402985,7.88059701 C12.0835877,7.88059701 12.1791045,7.78508302 12.1791045,7.64179804 L12.1791045,7.16417211 C12.1791045,7.02088713 12.0835877,6.92537313 11.9402985,6.92537313 C11.7970093,6.92537313 11.7014925,7.02088713 11.7014925,7.16417211 L11.7014925,7.64179804 C11.7014925,7.78508302 11.7970093,7.88059701 11.9402985,7.88059701 Z" id="Shape"></path>
                <path d="M11.9402985,12.6567164 C12.0835877,12.6567164 12.1791045,12.5612024 12.1791045,12.4179174 L12.1791045,11.9402915 C12.1791045,11.7970065 12.0835877,11.7014925 11.9402985,11.7014925 C11.7970093,11.7014925 11.7014925,11.7970065 11.7014925,11.9402915 L11.7014925,12.4179174 C11.7014925,12.5612024 11.7970093,12.6567164 11.9402985,12.6567164 Z" id="Shape"></path>
                <path d="M11.9402985,10.9850746 C12.0835877,10.9850746 12.1791045,10.8895606 12.1791045,10.7462757 L12.1791045,10.2686497 C12.1791045,10.1253647 12.0835877,10.0298507 11.9402985,10.0298507 C11.7970093,10.0298507 11.7014925,10.1253647 11.7014925,10.2686497 L11.7014925,10.7462757 C11.7014925,10.8895606 11.7970093,10.9850746 11.9402985,10.9850746 Z" id="Shape"></path>
                <path d="M11.9402985,6.20895522 C12.0835877,6.20895522 12.1791045,6.11344123 12.1791045,5.97015625 L12.1791045,5.49253032 C12.1791045,5.34924534 12.0835877,5.25373134 11.9402985,5.25373134 C11.7970093,5.25373134 11.7014925,5.34924534 11.7014925,5.49253032 L11.7014925,5.97015625 C11.7014925,6.11344123 11.7970093,6.20895522 11.9402985,6.20895522 Z" id="Shape"></path>
                <path d="M2.86567164,10.0298507 C3.00896082,10.0298507 3.10447761,9.93433675 3.10447761,9.79105177 L3.10447761,9.31342584 C3.10447761,9.17014086 3.00896082,9.07462687 2.86567164,9.07462687 C2.72238247,9.07462687 2.62686568,9.17014086 2.62686568,9.31342584 L2.62686568,9.79105177 C2.62683769,9.93430877 2.72238247,10.0298507 2.86567164,10.0298507 Z" id="Shape"></path>
                <path d="M2.86567164,11.7014925 C3.00896082,11.7014925 3.10447761,11.6059785 3.10447761,11.4626936 L3.10447761,10.9850676 C3.10447761,10.8417826 3.00896082,10.7462687 2.86567164,10.7462687 C2.72238247,10.7462687 2.62686568,10.8417826 2.62686568,10.9850676 L2.62686568,11.4626936 C2.62683769,11.6059506 2.72238247,11.7014925 2.86567164,11.7014925 Z" id="Shape"></path>
                <path d="M2.86567164,13.1343284 C3.00896082,13.1343284 3.10447761,13.0388144 3.10447761,12.8955294 L3.10447761,12.4179035 C3.10447761,12.2746185 3.00896082,12.1791045 2.86567164,12.1791045 C2.72238247,12.1791045 2.62686568,12.2746185 2.62686568,12.4179035 L2.62686568,12.8955294 C2.62683769,13.0387864 2.72238247,13.1343284 2.86567164,13.1343284 Z" id="Shape"></path>
                <path d="M2.86567164,1.91044776 C3.00896082,1.91044776 3.10447761,1.81493377 3.10447761,1.67164879 L3.10447761,1.19402285 C3.10447761,1.05073787 3.00896082,0.955223881 2.86567164,0.955223881 C2.72238247,0.955223881 2.62686568,1.05073787 2.62686568,1.19402285 L2.62686568,1.67164879 C2.62683769,1.81490578 2.72238247,1.91044776 2.86567164,1.91044776 Z" id="Shape"></path>
                <path d="M2.86567164,3.58208955 C3.00896082,3.58208955 3.10447761,3.48657556 3.10447761,3.34329058 L3.10447761,2.86566465 C3.10447761,2.72237966 3.00896082,2.62686567 2.86567164,2.62686567 C2.72238247,2.62686567 2.62686568,2.72237966 2.62686568,2.86566465 L2.62686568,3.34329058 C2.62683769,3.48654757 2.72238247,3.58208955 2.86567164,3.58208955 Z" id="Shape"></path>
                <path d="M2.86567164,5.25373134 C3.00896082,5.25373134 3.10447761,5.15821735 3.10447761,5.01493237 L3.10447761,4.53730644 C3.10447761,4.39402146 3.00896082,4.29850746 2.86567164,4.29850746 C2.72238247,4.29850746 2.62686568,4.39402146 2.62686568,4.53730644 L2.62686568,5.01493237 C2.62683769,5.15818937 2.72238247,5.25373134 2.86567164,5.25373134 Z" id="Shape"></path>
                <path d="M2.86567164,6.92537313 C3.00896082,6.92537313 3.10447761,6.82985914 3.10447761,6.68657416 L3.10447761,6.20894823 C3.10447761,6.06566325 3.00896082,5.97014925 2.86567164,5.97014925 C2.72238247,5.97014925 2.62686568,6.06566325 2.62686568,6.20894823 L2.62686568,6.68657416 C2.62683769,6.82983116 2.72238247,6.92537313 2.86567164,6.92537313 Z" id="Shape"></path>
                <path d="M2.86567164,8.35820896 C3.00896082,8.35820896 3.10447761,8.26269496 3.10447761,8.11940998 L3.10447761,7.64178405 C3.10447761,7.49849907 3.00896082,7.40298507 2.86567164,7.40298507 C2.72238247,7.40298507 2.62686568,7.49849907 2.62686568,7.64178405 L2.62686568,8.11940998 C2.62683769,8.26266698 2.72238247,8.35820896 2.86567164,8.35820896 Z" id="Shape"></path>
                <path d="M4.53731344,3.58208955 C4.68060261,3.58208955 4.7761194,3.48657556 4.7761194,3.34329058 L4.7761194,2.86566465 C4.7761194,2.72237966 4.68060261,2.62686567 4.53731344,2.62686567 C4.39402426,2.62686567 4.29850747,2.72237966 4.29850747,2.86566465 L4.29850747,3.34329058 C4.29847948,3.48654757 4.39402426,3.58208955 4.53731344,3.58208955 Z" id="Shape"></path>
                <path d="M4.53731344,1.91044776 C4.68060261,1.91044776 4.7761194,1.81493377 4.7761194,1.67164879 L4.7761194,1.19402285 C4.7761194,1.05073787 4.68060261,0.955223881 4.53731344,0.955223881 C4.39402426,0.955223881 4.29850747,1.05073787 4.29850747,1.19402285 L4.29850747,1.67164879 C4.29847948,1.81490578 4.39402426,1.91044776 4.53731344,1.91044776 Z" id="Shape"></path>
                <path d="M4.53731344,6.92537313 C4.68060261,6.92537313 4.7761194,6.82985914 4.7761194,6.68657416 L4.7761194,6.20894823 C4.7761194,6.06566325 4.68060261,5.97014925 4.53731344,5.97014925 C4.39402426,5.97014925 4.29850747,6.06566325 4.29850747,6.20894823 L4.29850747,6.68657416 C4.29847948,6.82983116 4.39402426,6.92537313 4.53731344,6.92537313 Z" id="Shape"></path>
                <path d="M4.53731344,5.25373134 C4.68060261,5.25373134 4.7761194,5.15821735 4.7761194,5.01493237 L4.7761194,4.53730644 C4.7761194,4.39402146 4.68060261,4.29850746 4.53731344,4.29850746 C4.39402426,4.29850746 4.29850747,4.39402146 4.29850747,4.53730644 L4.29850747,5.01493237 C4.29847948,5.15818937 4.39402426,5.25373134 4.53731344,5.25373134 Z" id="Shape"></path>
                <path d="M4.53731344,8.35820896 C4.68060261,8.35820896 4.7761194,8.26269496 4.7761194,8.11940998 L4.7761194,7.64178405 C4.7761194,7.49849907 4.68060261,7.40298507 4.53731344,7.40298507 C4.39402426,7.40298507 4.29850747,7.49849907 4.29850747,7.64178405 L4.29850747,8.11940998 C4.29847948,8.26266698 4.39402426,8.35820896 4.53731344,8.35820896 Z" id="Shape"></path>
                <path d="M4.53731344,10.0298507 C4.68060261,10.0298507 4.7761194,9.93433675 4.7761194,9.79105177 L4.7761194,9.31342584 C4.7761194,9.17014086 4.68060261,9.07462687 4.53731344,9.07462687 C4.39402426,9.07462687 4.29850747,9.17014086 4.29850747,9.31342584 L4.29850747,9.79105177 C4.29847948,9.93430877 4.39402426,10.0298507 4.53731344,10.0298507 Z" id="Shape"></path>
                <path d="M4.53731344,11.7014925 C4.68060261,11.7014925 4.7761194,11.6059785 4.7761194,11.4626936 L4.7761194,10.9850676 C4.7761194,10.8417826 4.68060261,10.7462687 4.53731344,10.7462687 C4.39402426,10.7462687 4.29850747,10.8417826 4.29850747,10.9850676 L4.29850747,11.4626936 C4.29847948,11.6059506 4.39402426,11.7014925 4.53731344,11.7014925 Z" id="Shape"></path>
                <path d="M6.20895523,5.25373134 C6.3522444,5.25373134 6.44776119,5.15821735 6.44776119,5.01493237 L6.44776119,4.53730644 C6.44776119,4.39402146 6.3522444,4.29850746 6.20895523,4.29850746 C6.06566605,4.29850746 5.97014926,4.39402146 5.97014926,4.53730644 L5.97014926,5.01493237 C5.97012127,5.15818937 6.06566605,5.25373134 6.20895523,5.25373134 Z" id="Shape"></path>
                <path d="M6.20895523,3.58208955 C6.3522444,3.58208955 6.44776119,3.48657556 6.44776119,3.34329058 L6.44776119,2.86566465 C6.44776119,2.72237966 6.3522444,2.62686567 6.20895523,2.62686567 C6.06566605,2.62686567 5.97014926,2.72237966 5.97014926,2.86566465 L5.97014926,3.34329058 C5.97012127,3.48654757 6.06566605,3.58208955 6.20895523,3.58208955 Z" id="Shape"></path>
                <path d="M6.20895523,1.91044776 C6.3522444,1.91044776 6.44776119,1.81493377 6.44776119,1.67164879 L6.44776119,1.19402285 C6.44776119,1.05073787 6.3522444,0.955223881 6.20895523,0.955223881 C6.06566605,0.955223881 5.97014926,1.05073787 5.97014926,1.19402285 L5.97014926,1.67164879 C5.97012127,1.81490578 6.06566605,1.91044776 6.20895523,1.91044776 Z" id="Shape"></path>
                <path d="M6.20895523,11.7014925 C6.3522444,11.7014925 6.44776119,11.6059785 6.44776119,11.4626936 L6.44776119,10.9850676 C6.44776119,10.8417826 6.3522444,10.7462687 6.20895523,10.7462687 C6.06566605,10.7462687 5.97014926,10.8417826 5.97014926,10.9850676 L5.97014926,11.4626936 C5.97012127,11.6059506 6.06566605,11.7014925 6.20895523,11.7014925 Z" id="Shape"></path>
                <path d="M6.20895523,10.0298507 C6.3522444,10.0298507 6.44776119,9.93433675 6.44776119,9.79105177 L6.44776119,9.31342584 C6.44776119,9.17014086 6.3522444,9.07462687 6.20895523,9.07462687 C6.06566605,9.07462687 5.97014926,9.17014086 5.97014926,9.31342584 L5.97014926,9.79105177 C5.97012127,9.93430877 6.06566605,10.0298507 6.20895523,10.0298507 Z" id="Shape"></path>
                <path d="M6.20895523,8.35820896 C6.3522444,8.35820896 6.44776119,8.26269496 6.44776119,8.11940998 L6.44776119,7.64178405 C6.44776119,7.49849907 6.3522444,7.40298507 6.20895523,7.40298507 C6.06566605,7.40298507 5.97014926,7.49849907 5.97014926,7.64178405 L5.97014926,8.11940998 C5.97012127,8.26266698 6.06566605,8.35820896 6.20895523,8.35820896 Z" id="Shape"></path>
                <path d="M6.20895523,6.92537313 C6.3522444,6.92537313 6.44776119,6.82985914 6.44776119,6.68657416 L6.44776119,6.20894823 C6.44776119,6.06566325 6.3522444,5.97014925 6.20895523,5.97014925 C6.06566605,5.97014925 5.97014926,6.06566325 5.97014926,6.20894823 L5.97014926,6.68657416 C5.97012127,6.82983116 6.06566605,6.92537313 6.20895523,6.92537313 Z" id="Shape"></path>
                <path d="M7.64179105,3.58208955 C7.78508023,3.58208955 7.88059701,3.48657556 7.88059701,3.34329058 L7.88059701,2.86566465 C7.88059701,2.72237966 7.78508023,2.62686567 7.64179105,2.62686567 C7.49850187,2.62686567 7.40298508,2.72237966 7.40298508,2.86566465 L7.40298508,3.34329058 C7.40295709,3.48654757 7.49850187,3.58208955 7.64179105,3.58208955 Z" id="Shape"></path>
                <path d="M7.64179105,1.91044776 C7.78508023,1.91044776 7.88059701,1.81493377 7.88059701,1.67164879 L7.88059701,1.19402285 C7.88059701,1.05073787 7.78508023,0.955223881 7.64179105,0.955223881 C7.49850187,0.955223881 7.40298508,1.05073787 7.40298508,1.19402285 L7.40298508,1.67164879 C7.40295709,1.81490578 7.49850187,1.91044776 7.64179105,1.91044776 Z" id="Shape"></path>
            </g>
        </g>
    </g>
</svg>